44
2
1
1
6
2
1
37
9
1
1
18
4
1
22
37
40
24
2
1
6
28
3
1
6
37
32
3
1
3
22
39
3
1
37
40
48
2
1
37
33
2
2
11
8
3
3
22
38
19
2
3
38
21
2
3
23
26
2
3
17
45
3
3
6
22
46
2
3
25
37
3
3
22
29
11
3
5
13
29
7
2
6
10
40
3
6
10
22
14
3
7
19
34
49
3
8
21
31
23
5
11
16
19
27
34
47
1
11
15
2
12
29
27
1
12
5
1
13
16
3
14
26
29
13
1
16
42
2
17
36
17
3
19
34
38
41
1
22
29
1
23
4
1
23
31
2
23
29
25
2
27
34
44
1
29
34
1
31
3
1
37
10
1
37
43
1
37
12
1
38
30
1
41
38
1
41
